{
  "title": "Official docs overview",
  "description": "Official documentation from Google about Chrome ext developing",
  "path_to_pdf": "/pdf/official/",
  "path_to_html": "/html/official/",
  "data":
  [
    {
      "name": "Getting started",
      "online": "https://developer.chrome.com/extensions/getstarted",
      "html": "Getting_Started.html",
      "pdf": "Getting_Started.pdf"
    },
    {
      "name": "Overview",
      "online": "https://developer.chrome.com/extensions/overview",
      "html": "Overview.html",
      "pdf": "Overview.pdf"
    },
    {
      "name": "Event Pages",
      "online": "https://developer.chrome.com/extensions/event_pages",
      "html": "Event Pages.html",
      "pdf": "Event Pages.pdf"
    },
    {
      "name": "Content Scripts",
      "online": "https://developer.chrome.com/extensions/content_scripts",
      "html": "Content Scripts.html",
      "pdf": "Content Scripts.pdf"
    },
    {
      "name": "The activeTab permission",
      "online": "https://developer.chrome.com/extensions/activeTab",
      "html": "The activeTab.html",
      "pdf": "The activeTab.pdf"
    },
    {
      "name": "Tutorial: Debugging",
      "online": "https://developer.chrome.com/extensions/tut_debugging",
      "html": "Tutorial_ Debugging.html",
      "pdf": "Tutorial_ Debugging.pdf"
    },
    {
      "name": "JavaScript APIs",
      "online": "https://developer.chrome.com/extensions/api_index",
      "html": "JavaScript APIs.html",
      "pdf": "JavaScript APIs.pdf"
    },
    {
      "name": "Match Patterns",
      "online": "https://developer.chrome.com/extensions/match_patterns",
      "html": "Match Patterns.html",
      "pdf": "Match Patterns.pdf"
    },
    {
      "name": "Manifest File Format",
      "online": "https://developer.chrome.com/extensions/manifest",
      "html": "Manifest File Format.html",
      "pdf": "Manifest File Format.pdf"
    },
    {
      "name": "Cross-Origin XMLHttpRequest",
      "online": "https://developer.chrome.com/extensions/xhr",
      "html": "Cross-Origin XMLHttpRequest.html",
      "pdf": "Cross-Origin XMLHttpRequest.pdf"
    },
    {
      "name": "Internationalization",
      "online": "https://developer.chrome.com/extensions/i18n",
      "html": "chrome.i18n.html",
      "pdf": "chrome_internacional.pdf"
    },
    {
      "name": "Permission Warnings",
      "online": "https://developer.chrome.com/extensions/permission_warnings",
      "html": "Permission Warnings.html",
      "pdf": "Permission Warnings.pdf"
    },
    {
      "name": "Optional Permissions",
      "online": "https://developer.chrome.com/extensions/permissions",
      "pdf": "chrome_permissions.pdf"
    },
    {
      "name": "Tutorial: OAuth",
      "online": "https://developer.chrome.com/extensions/tut_oauth",
      "html": "Tutorial_ OAuth - Google Chrome.html",
      "pdf": "Tutorial_ OAuth - Google Chrome.pdf"
    },
    {
      "name": "Message Passing",
      "online": "https://developer.chrome.com/extensions/messaging",
      "html": "Message Passing - Google Chrome.html",
      "pdf": "Message Passing - Google Chrome.pdf"
    },
    {
      "name": "Native Messaging",
      "online": "https://developer.chrome.com/extensions/nativeMessaging",
      "html": "Native Messaging - Google Chrome.html",
      "pdf": "Native Messaging - Google Chrome.pdf"
    },
    {
      "name": "Frequently Asked Questions (Official FAQ)",
      "online": "https://developer.chrome.com/extensions/faq",
      "html": "Frequently Asked Questions - Google Chrome.html",
      "pdf": "Frequently Asked Questions - Google Chrome.pdf"
    }

  ]
}